login;password
toto;76e4b28b5527652fd7af9a57e17f6adce5bbba78
tata;7c4a8d09ca3762af61e59520943dc26494f8941b
tutu;57b2ad99044d337197c0c39fd3823568ff81e48a
plauzero;90ecc5a92e2ddf496cbc3d12912ee1bcc8aaf01e
monuser;5f1af74861a055b2afdbd86a5c6acc82786b02ce
